[
    {
        "contador":[
            287,
            286,
            285,
            284,
            283,
            282,
            279,
            278,
            277,
            276,
            275,
            274,
            273,
            272,
            271,
            270,
            269,
            268,
            267,
            266,
            265,
            264,
            263,
            262,
            261,
            260,
            259,
            258,
            257,
            256,
            255,
            254,
            253,
            252,
            251,
            250,
            249,
            248,
            247,
            246,
            245,
            244,
            243,
            242,
            241,
            240,
            239,
            238,
            237,
            236,
            235,
            234,
            233,
            232,
            231,
            230,
            229,
            228,
            227,
            226,
            225,
            224,
            223,
            222,
            221,
            220,
            219,
            218,
            217,
            216,
            215,
            183,
            182,
            179,
            174,
            169
        ],
        "dial":[
            41.553192721257204,
            41.553192721257204,
            41.553192721257204,
            41.446817993880785,
            42.512946199121274,
            42.512946199121274,
            42.35268904081215,
            42.29929654486696,
            42.29929654486696,
            42.29929654486696,
            42.29929654486696,
            42.245917319083674,
            42.29929654486696,
            42.245917319083674,
            42.245917319083674,
            42.245917319083674,
            42.245917319083674,
            42.13919865821845,
            42.13919865821845,
            42.08585921325053,
            42.13919865821845,
            42.08585921325053,
            42.08585921325053,
            42.08585921325053,
            42.08585921325053,
            42.08585921325053,
            42.08585921325053,
            42.08585921325053,
            42.03253301867262,
            42.08585921325053,
            42.03253301867262,
            42.03253301867262,
            42.03253301867262,
            42.03253301867262,
            42.03253301867262,
            41.925920360942115,
            42.03253301867262,
            41.925920360942115,
            41.925920360942115,
            41.925920360942115,
            41.925920360942115,
            41.87263388792307,
            41.87263388792307,
            41.87263388792307,
            41.87263388792307,
            41.87263388792307,
            41.87263388792307,
            41.87263388792307,
            41.87263388792307,
            41.81936064556176,
            41.71285383310581,
            41.81936064556176,
            41.71285383310581,
            41.71285383310581,
            41.71285383310581,
            41.71285383310581,
            41.71285383310581,
            41.65962025316452,
            41.65962025316452,
            41.65962025316452,
            41.606399884187454,
            41.606399884187454,
            41.606399884187454,
            41.553192721257204,
            41.340496031746085,
            41.340496031746085,
            41.340496031746085,
            41.340496031746085,
            41.340496031746085,
            41.23422679560281,
            41.23422679560281,
            27.031154524618046,
            27.933203966449256,
            28.79158070742713,
            28.79158070742713,
            27.22071835979648
        ],
        "dialc":[
            -11.444763182964794,
            -13.305522646958316,
            -11.069954410844666,
            -13.047040724359587,
            -10.433330873279614,
            -10.433330873279614,
            -10.32465370121261,
            -10.378150557254532,
            -10.397123630005899,
            -10.378150557254532,
            -10.397123630005899,
            -10.410919043891573,
            -10.416091632840901,
            -10.391949658471368,
            -10.372975202806847,
            -10.448842608809572,
            -10.429883360270065,
            -10.459181881502698,
            -10.459181881502698,
            -10.491912969071713,
            -10.478133300293266,
            -10.510855640366366,
            -10.510855640366366,
            -10.510855640366366,
            -10.491912969071713,
            -10.491912969071713,
            -10.510855640366366,
            -10.52979324896176,
            -10.543562876022717,
            -10.52979324896176,
            -10.562491742789573,
            -10.562491742789573,
            -10.562491742789573,
            -10.562491742789573,
            -10.505689959422515,
            -10.62956241969908,
            -10.562491742789573,
            -10.648468298808583,
            -10.667369123970389,
            -10.610651485438321,
            -10.610651485438321,
            -10.700004103391255,
            -10.700004103391255,
            -10.662214854620943,
            -10.662214854620943,
            -10.68111200494042,
            -10.68111200494042,
            -10.662214854620943,
            -10.700004103391255,
            -10.790958897340042,
            -10.799533490681712,
            -10.75321830226615,
            -10.799533490681712,
            -10.818393927598656,
            -10.780668009448105,
            -10.780668009448105,
            -10.76179748269367,
            -10.814965132392954,
            -10.814965132392954,
            -10.871518939148872,
            -10.88522212097835,
            -10.866379558753342,
            -10.88522212097835,
            -10.919468416433917,
            -11.013559898682011,
            -11.051161268744607,
            -11.069954410844666,
            -11.051161268744607,
            -11.051161268744607,
            -11.117768818745859,
            -11.136544143233655,
            40.55407571489896,
            41.07277334224475,
            42.991516099437874,
            42.612891479817,
            40.65881637005439
        ],
        "freqc":[
            8060.0,
            8060.0,
            8060.0,
            8062.0,
            8042.0,
            8042.0,
            8045.0,
            8046.0,
            8046.0,
            8046.0,
            8046.0,
            8047.0,
            8046.0,
            8047.0,
            8047.0,
            8047.0,
            8047.0,
            8049.0,
            8049.0,
            8050.0,
            8049.0,
            8050.0,
            8050.0,
            8050.0,
            8050.0,
            8050.0,
            8050.0,
            8050.0,
            8051.0,
            8050.0,
            8051.0,
            8051.0,
            8051.0,
            8051.0,
            8051.0,
            8053.0,
            8051.0,
            8053.0,
            8053.0,
            8053.0,
            8053.0,
            8054.0,
            8054.0,
            8054.0,
            8054.0,
            8054.0,
            8054.0,
            8054.0,
            8054.0,
            8055.0,
            8057.0,
            8055.0,
            8057.0,
            8057.0,
            8057.0,
            8057.0,
            8057.0,
            8058.0,
            8058.0,
            8058.0,
            8059.0,
            8059.0,
            8059.0,
            8060.0,
            8064.0,
            8064.0,
            8064.0,
            8064.0,
            8064.0,
            8066.0,
            8066.0,
            8350.0,
            8331.0,
            8313.0,
            8313.0,
            8346.0
        ],
        "freqv":[
            10914,
            10914,
            10914,
            10914,
            10914,
            10914,
            10914,
            10914,
            10914,
            10914,
            10914,
            10914,
            10914,
            10914,
            10914,
            10914,
            10914,
            10914,
            10914,
            10914,
            10914,
            10914,
            10914,
            10914,
            10914,
            10914,
            10914,
            10914,
            10914,
            10914,
            10914,
            10914,
            10914,
            10914,
            10914,
            10914,
            10914,
            10914,
            10914,
            10914,
            10914,
            10914,
            10914,
            10914,
            10914,
            10914,
            10914,
            10914,
            10914,
            10914,
            10914,
            10914,
            10914,
            10914,
            10914,
            10914,
            10914,
            10914,
            10914,
            10914,
            10914,
            10914,
            10914,
            10914,
            10914,
            10914,
            10914,
            10914,
            10914,
            10914,
            10914,
            10914,
            10914,
            10914,
            10914,
            10914
        ],
        "grupo":[
            6,
            6,
            6,
            6,
            6,
            6,
            6,
            6,
            6,
            6,
            6,
            6,
            6,
            6,
            6,
            6,
            6,
            6,
            6,
            6,
            6,
            6,
            6,
            6,
            6,
            6,
            6,
            6,
            6,
            6,
            6,
            6,
            6,
            6,
            6,
            6,
            6,
            6,
            6,
            6,
            6,
            6,
            6,
            6,
            6,
            6,
            6,
            6,
            6,
            6,
            6,
            6,
            6,
            6,
            6,
            6,
            6,
            6,
            6,
            6,
            6,
            6,
            6,
            6,
            6,
            6,
            6,
            6,
            6,
            6,
            6,
            6,
            6,
            6,
            6,
            6
        ],
        "key":"value",
        "nome":"TRIGO ARGENTINA ",
        "peso":[
            426.1,
            436.3,
            424.1,
            434.5,
            423.9,
            423.9,
            422.8,
            422.9,
            423.0,
            422.9,
            423.0,
            422.9,
            423.1,
            422.8,
            422.7,
            423.1,
            423.0,
            422.8,
            422.8,
            422.8,
            422.9,
            422.9,
            422.9,
            422.9,
            422.8,
            422.8,
            422.9,
            423.0,
            422.9,
            423.0,
            423.0,
            423.0,
            423.0,
            423.0,
            422.7,
            423.0,
            423.0,
            423.1,
            423.2,
            422.9,
            422.9,
            423.2,
            423.2,
            423.0,
            423.0,
            423.1,
            423.1,
            423.0,
            423.2,
            423.5,
            423.2,
            423.3,
            423.2,
            423.3,
            423.1,
            423.1,
            423.0,
            423.1,
            423.1,
            423.4,
            423.3,
            423.2,
            423.3,
            423.3,
            423.1,
            423.3,
            423.4,
            423.3,
            423.3,
            423.3,
            423.4,
            221.9,
            222.8,
            221.0,
            221.7,
            222.1
        ],
        "ph":[
            130.17,
            133.29,
            129.56,
            132.74,
            129.5,
            129.5,
            129.16,
            129.19,
            129.22,
            129.19,
            129.22,
            129.19,
            129.25,
            129.16,
            129.13,
            129.25,
            129.22,
            129.16,
            129.16,
            129.16,
            129.19,
            129.19,
            129.19,
            129.19,
            129.16,
            129.16,
            129.19,
            129.22,
            129.19,
            129.22,
            129.22,
            129.22,
            129.22,
            129.22,
            129.13,
            129.22,
            129.22,
            129.25,
            129.28,
            129.19,
            129.19,
            129.28,
            129.28,
            129.22,
            129.22,
            129.25,
            129.25,
            129.22,
            129.28,
            129.38,
            129.28,
            129.31,
            129.28,
            129.31,
            129.25,
            129.25,
            129.22,
            129.25,
            129.25,
            129.35,
            129.31,
            129.28,
            129.31,
            129.31,
            129.25,
            129.31,
            129.35,
            129.31,
            129.31,
            129.31,
            129.35,
            67.79,
            68.06,
            67.51,
            67.73,
            67.85
        ],
        "temperatura":[
            26.6,
            26.6,
            26.6,
            26.6,
            27.8,
            27.8,
            27.1,
            27.1,
            27.1,
            27.1,
            27.1,
            27.0,
            27.0,
            27.0,
            27.0,
            26.9,
            26.9,
            26.9,
            26.9,
            26.9,
            26.8,
            26.8,
            26.8,
            26.8,
            26.8,
            26.8,
            26.8,
            26.8,
            26.8,
            26.7,
            26.7,
            26.7,
            26.7,
            26.7,
            26.7,
            26.6,
            26.6,
            26.6,
            26.6,
            26.6,
            26.6,
            26.5,
            26.5,
            26.5,
            26.5,
            26.4,
            26.4,
            26.4,
            26.4,
            26.3,
            26.3,
            26.3,
            26.3,
            26.3,
            26.3,
            26.3,
            26.3,
            26.2,
            26.2,
            26.1,
            26.1,
            26.1,
            26.0,
            26.0,
            25.8,
            25.6,
            25.6,
            25.6,
            25.6,
            25.5,
            25.4,
            24.9,
            24.8,
            24.8,
            24.8,
            24.6
        ],
        "time":[
            "2017-03-10 18:58:25",
            "2017-03-10 18:58:16",
            "2017-03-10 18:36:59",
            "2017-03-10 18:36:52",
            "2017-03-10 16:09:55",
            "2017-03-10 16:09:50",
            "2017-03-10 14:06:08",
            "2017-03-10 14:05:01",
            "2017-03-10 14:04:57",
            "2017-03-10 14:03:42",
            "2017-03-10 14:03:03",
            "2017-03-10 14:02:38",
            "2017-03-10 14:01:46",
            "2017-03-10 14:01:16",
            "2017-03-10 14:00:33",
            "2017-03-10 13:59:43",
            "2017-03-10 13:59:09",
            "2017-03-10 13:58:46",
            "2017-03-10 13:57:40",
            "2017-03-10 13:56:40",
            "2017-03-10 13:56:00",
            "2017-03-10 13:55:39",
            "2017-03-10 13:55:23",
            "2017-03-10 13:54:57",
            "2017-03-10 13:54:29",
            "2017-03-10 13:54:04",
            "2017-03-10 13:53:34",
            "2017-03-10 13:53:08",
            "2017-03-10 13:52:30",
            "2017-03-10 13:52:09",
            "2017-03-10 13:51:51",
            "2017-03-10 13:51:03",
            "2017-03-10 13:50:44",
            "2017-03-10 13:50:21",
            "2017-03-10 13:50:02",
            "2017-03-10 13:49:39",
            "2017-03-10 13:49:20",
            "2017-03-10 13:48:38",
            "2017-03-10 13:48:15",
            "2017-03-10 13:47:41",
            "2017-03-10 13:46:25",
            "2017-03-10 13:44:06",
            "2017-03-10 13:43:44",
            "2017-03-10 13:43:18",
            "2017-03-10 13:42:47",
            "2017-03-10 13:42:16",
            "2017-03-10 13:42:03",
            "2017-03-10 13:41:47",
            "2017-03-10 13:41:08",
            "2017-03-10 13:38:31",
            "2017-03-10 13:37:59",
            "2017-03-10 13:37:19",
            "2017-03-10 13:36:52",
            "2017-03-10 13:36:22",
            "2017-03-10 13:36:01",
            "2017-03-10 13:35:39",
            "2017-03-10 13:35:24",
            "2017-03-10 13:34:01",
            "2017-03-10 13:32:54",
            "2017-03-10 13:31:40",
            "2017-03-10 13:29:47",
            "2017-03-10 13:29:20",
            "2017-03-10 13:26:55",
            "2017-03-10 13:25:33",
            "2017-03-10 13:18:15",
            "2017-03-10 13:16:44",
            "2017-03-10 13:15:39",
            "2017-03-10 13:15:02",
            "2017-03-10 13:14:27",
            "2017-03-10 13:12:37",
            "2017-03-10 13:11:32",
            "2017-01-16 17:01:35",
            "2017-01-16 15:58:12",
            "2017-01-16 15:55:36",
            "2017-01-16 15:38:43",
            "2017-01-16 13:21:30"
        ],
        "type":"",
        "umidade":[
            {
                "context":{
                    "lat":0,
                    "lng":0
                },
                "value":1.8270868916393743
            },
            {
                "context":{
                    "lat":0,
                    "lng":0
                },
                "value":1.44511237668035
            },
            {
                "context":{
                    "lat":0,
                    "lng":0
                },
                "value":1.9039561408767671
            },
            {
                "context":{
                    "lat":0,
                    "lng":0
                },
                "value":1.4982083625875884
            },
            {
                "context":{
                    "lat":0,
                    "lng":0
                },
                "value":1.9221245806312073
            },
            {
                "context":{
                    "lat":0,
                    "lng":0
                },
                "value":1.9221245806312073
            },
            2.0099295103881856,
            1.9989661002147532,
            1.9950777256102592,
            1.9989661002147532,
            1.9950777256102592,
            2.001612231105409,
            2.0005521290155484,
            2.0054998944104705,
            2.009388535779183,
            2.003201637896032,
            2.0070873456664584,
            2.001082572934828,
            2.001082572934828,
            1.994374118782761,
            2.0065601757179152,
            1.999853409272748,
            1.999853409272748,
            1.999853409272748,
            2.003735918782761,
            2.003735918782761,
            1.999853409272748,
            1.9959718765865233,
            1.9931495571530737,
            2.005333676586523,
            1.9986315112419755,
            1.9986315112419755,
            1.9986315112419755,
            1.9986315112419755,
            2.01027397861934,
            1.9942453593200744,
            2.007993311241976,
            1.9903699494690823,
            1.9864955150022032,
            1.998121744753269,
            1.998121744753269,
            1.989167406826458,
            1.989167406826458,
            1.9969138822267203,
            1.9969138822267203,
            2.0024019570056604,
            2.0024019570056604,
            2.006275682226719,
            1.9985292068264568,
            1.989245052713688,
            1.987487167840623,
            1.9969821368585583,
            1.987487167840623,
            1.9836205293102607,
            1.9913547801688356,
            1.9913547801688356,
            1.995223366493339,
            1.9936852820752984,
            1.9936852820752984,
            1.9914524763847785,
            1.9886429819187859,
            1.992506169492673,
            1.9980047819187847,
            1.9909832969147692,
            1.9904143868465596,
            2.001427784991585,
            1.9975741408767673,
            2.001427784991585,
            2.001427784991585,
            1.9971310457658165,
            2.0026426431872713,
            12.42300402051196,
            12.534164401867303,
            12.910336506370193,
            12.836156088350267,
            12.471649293305202
        ],
        "user":[
            "luiz",
            "luiz",
            "luiz",
            "luiz",
            "luiz",
            "luiz",
            "luiz",
            "luiz",
            "luiz",
            "luiz",
            "luiz",
            "luiz",
            "luiz",
            "luiz",
            "luiz",
            "luiz",
            "luiz",
            "luiz",
            "luiz",
            "luiz",
            "luiz",
            "luiz",
            "luiz",
            "luiz",
            "luiz",
            "luiz",
            "luiz",
            "luiz",
            "luiz",
            "luiz",
            "luiz",
            "luiz",
            "luiz",
            "luiz",
            "luiz",
            "luiz",
            "luiz",
            "luiz",
            "luiz",
            "luiz",
            "luiz",
            "luiz",
            "luiz",
            "luiz",
            "luiz",
            "luiz",
            "luiz",
            "luiz",
            "luiz",
            "luiz",
            "luiz",
            "luiz",
            "luiz",
            "luiz",
            "luiz",
            "luiz",
            "luiz",
            "luiz",
            "luiz",
            "luiz",
            "luiz",
            "luiz",
            "luiz",
            "luiz",
            "luiz",
            "luiz",
            "luiz",
            "luiz",
            "luiz",
            "luiz",
            "luiz",
            "luiz",
            "luiz",
            "luiz",
            "luiz",
            "luiz"
        ]
    },
    {
        "contador":[
            214,
            213,
            212,
            211,
            210,
            209,
            208,
            207,
            206,
            205,
            204,
            203,
            202,
            201,
            200,
            199,
            198,
            197,
            196,
            195
        ],
        "dial":[
            61.18111193752327,
            61.18111193752327,
            61.12801024624035,
            61.02184634448568,
            60.915735051205644,
            60.75666666666669,
            60.49181518151818,
            60.43888421399994,
            60.33306156954907,
            60.174425756451456,
            60.06873392680512,
            62.13919865821845,
            64.6611905356994,
            64.76916666666656,
            64.6611905356994,
            63.42333333333323,
            54.06999430357544,
            53.9718798064078,
            53.579899609298934,
            53.53095576423698
        ],
        "dialc":[
            -10.25243258988782,
            -10.27257763421423,
            -10.27257763421423,
            -10.263177699992486,
            -10.302107907705137,
            -10.361112127488461,
            -11.44702376310194,
            -10.553691997299175,
            -10.573706183811144,
            -10.65101236754541,
            -11.625919631853902,
            -9.939743571002781,
            -9.667145331079,
            -9.63857426221434,
            -9.69569924325055,
            -10.13272571210329,
            -11.026345822316616,
            -11.054074001765986,
            -11.164816383344775,
            -11.193775319586058
        ],
        "freqc":[
            8067.0,
            8067.0,
            8068.0,
            8070.0,
            8072.0,
            8075.0,
            8080.0,
            8081.0,
            8083.0,
            8086.0,
            8088.0,
            8049.0,
            8002.0,
            8000.0,
            8002.0,
            8025.0,
            8204.0,
            8206.0,
            8214.0,
            8215.0
        ],
        "freqv":[
            10914,
            10914,
            10914,
            10914,
            10914,
            10914,
            10914,
            10914,
            10914,
            10914,
            10914,
            10914,
            10914,
            10914,
            10914,
            10914,
            10914,
            10914,
            10914,
            10914
        ],
        "grupo":[
            0
        ],
        "key":"value",
        "nome":"GIRASSOL ",
        "peso":[
            423.2,
            423.4,
            423.2,
            422.7,
            422.7,
            422.7,
            433.3,
            423.5,
            423.3,
            423.5,
            433.6,
            423.6,
            430.3,
            430.4,
            430.6,
            430.5,
            403.7,
            403.6,
            403.2,
            403.3
        ],
        "ph":[
            129.28,
            129.35,
            129.28,
            129.13,
            129.13,
            129.13,
            132.37,
            129.38,
            129.31,
            129.38,
            132.46,
            129.41,
            131.45,
            131.48,
            131.54,
            131.51,
            123.33,
            123.3,
            123.17,
            123.21
        ],
        "temperatura":[
            25.4,
            25.3,
            25.3,
            25.2,
            25.2,
            25.2,
            25.0,
            24.6,
            24.4,
            24.1,
            24.1,
            27.2,
            26.9,
            26.7,
            26.3,
            26.2,
            25.9,
            25.8,
            25.8,
            25.8
        ],
        "time":[
            "2017-03-10 13:10:38",
            "2017-03-10 13:09:30",
            "2017-03-10 13:08:12",
            "2017-03-10 13:05:16",
            "2017-03-10 13:03:27",
            "2017-03-10 13:02:10",
            "2017-03-10 13:00:06",
            "2017-03-10 12:49:52",
            "2017-03-10 12:47:03",
            "2017-03-10 12:42:01",
            "2017-03-10 12:40:03",
            "2017-03-09 18:49:29",
            "2017-03-09 18:46:14",
            "2017-03-09 18:42:43",
            "2017-03-09 18:39:39",
            "2017-03-09 18:34:19",
            "2017-03-07 19:55:49",
            "2017-03-07 19:55:19",
            "2017-03-07 19:54:54",
            "2017-03-07 19:54:22"
        ],
        "type":"",
        "umidade":[
            4.765574713468925,
            4.766642677394663,
            4.766642677394663,
            4.774000562747984,
            4.765710831904817,
            4.753139489479569,
            1.7455181826538055,
            4.7441889956584085,
            4.750626640283295,
            4.750172468899749,
            4.540523530073921,
            4.735596105523943,
            4.80939289491242,
            4.8261460009167365,
            4.835494386058569,
            4.7481855026214275,
            4.57331749052699,
            4.572718051078219,
            4.5489114773472075,
            4.54268110559865
        ],
        "user":[
            "luiz",
            "luiz",
            "luiz",
            "luiz",
            "luiz",
            "luiz",
            "luiz",
            "luiz",
            "luiz",
            "luiz",
            "luiz",
            "luiz",
            "luiz",
            "luiz",
            "luiz",
            "luiz",
            "luiz",
            "luiz",
            "luiz",
            "luiz"
        ]
    },
    {
        "contador":[
            194,
            193,
            192,
            191,
            190,
            189,
            188,
            187,
            186,
            185,
            184,
            172,
            168,
            159,
            158,
            157,
            156,
            155,
            154,
            153,
            152,
            151,
            150,
            149,
            148,
            147,
            146,
            145,
            144,
            143,
            142,
            141,
            140,
            139,
            138,
            137,
            136,
            135,
            134,
            133,
            132,
            131,
            130,
            129,
            128,
            127,
            126,
            125,
            124,
            123,
            122,
            121,
            120,
            119,
            118,
            117,
            116,
            115,
            114,
            113,
            112,
            111,
            110,
            109,
            108,
            107,
            106,
            105,
            104,
            103,
            102,
            101
        ],
        "dial":[
            8.79158070742713,
            7.363010523023775,
            8.076009078676108,
            7.980794241544288,
            7.980794241544288,
            7.790501665678349,
            6.983791940244984,
            6.416324410149997,
            7.790501665678349,
            7.9332039664492555,
            7.9332039664492555,
            7.220718359796479,
            8.36192818224768,
            8.076009078676108,
            8.02839594424772,
            9.27006483157814,
            8.982836150095324,
            9.605690068661893,
            8.648259867498282,
            10.295610277340003,
            9.625053999423287,
            40.562843943527184,
            9.625053999423287,
            9.625053999423287,
            9.625053999423287,
            9.625053999423287,
            9.625053999423287,
            9.529444287229538,
            9.386115791780426,
            9.386115791780426,
            10.72787627525313,
            10.67980044868159,
            10.67980044868159,
            10.67980044868159,
            10.72787627525313,
            10.535642417614817,
            10.872173262186948,
            10.103792385155131,
            10.103792385155131,
            10.103792385155131,
            10.103792385155131,
            10.103792385155131,
            10.103792385155131,
            9.912158933251135,
            9.912158933251135,
            9.912158933251135,
            9.912158933251135,
            9.912158933251135,
            9.912158933251135,
            10.007952620798193,
            10.007952620798193,
            10.007952620798193,
            10.007952620798193,
            10.007952620798193,
            10.007952620798193,
            10.007952620798193,
            10.055866741297912,
            10.055866741297912,
            10.055866741297912,
            10.439594895652405,
            9.720709655736243,
            11.981925237450852,
            10.968429218040825,
            11.788482072223175,
            11.788482072223175,
            11.788482072223175,
            11.498667468882473,
            11.450405830966915,
            11.450405830966915,
            11.450405830966915,
            11.450405830966915,
            11.450405830966915
        ],
        "dialc":[
            17.132888216102828,
            13.957542740725444,
            -20.062068708416252,
            19.14142413043632,
            19.24545903126319,
            13.408541928254447,
            20.87621953588455,
            20.186227786450136,
            16.10909609718669,
            22.157794519728625,
            16.659000538659082,
            21.088464843926513,
            22.042996566917992,
            22.265862437783646,
            22.157794519728625,
            18.450730933398763,
            22.847099500756755,
            23.27327779169028,
            16.48561065352931,
            24.702897634256335,
            23.40187056192679,
            57.362780058639515,
            23.293579998167587,
            23.293579998167587,
            23.185309904462695,
            23.131182582228305,
            23.23944238288813,
            17.62406780208528,
            22.809908855294147,
            22.3266602923166,
            25.24239752562222,
            25.076089122179706,
            25.188088154100086,
            25.188088154100086,
            25.130389313174202,
            24.970895270506542,
            25.405352091597614,
            24.706289311393665,
            24.540118414737968,
            24.37738124507043,
            24.652024642694837,
            24.43162226379475,
            24.48586799347548,
            24.326534585750416,
            24.380771170357818,
            24.435012484084524,
            24.546900046307584,
            24.272302749635188,
            18.940136713733338,
            24.76395057577323,
            24.65541604897936,
            24.597764606237924,
            24.597764606237924,
            24.543509221399706,
            24.821617024400293,
            24.76395057577323,
            24.818224737271194,
            24.76395057577323,
            24.930179615818105,
            25.082876401405372,
            24.387551076347254,
            26.81921397591299,
            25.789128410224325,
            26.768185992167,
            26.93829243629535,
            26.93829243629535,
            26.611721496535502,
            26.557306661080034,
            26.387285866357743,
            26.611721496535502,
            26.66954156876133,
            26.49949523005732
        ],
        "freqc":[
            8313.0,
            8343.0,
            8328.0,
            8330.0,
            8330.0,
            8334.0,
            8351.0,
            8363.0,
            8334.0,
            8331.0,
            8331.0,
            8346.0,
            8322.0,
            8328.0,
            8329.0,
            8303.0,
            8309.0,
            8296.0,
            8316.0,
            8312.0,
            8326.0,
            7726.0,
            8326.0,
            8326.0,
            8326.0,
            8326.0,
            8326.0,
            8328.0,
            8331.0,
            8331.0,
            8303.0,
            8304.0,
            8304.0,
            8304.0,
            8303.0,
            8307.0,
            8300.0,
            8316.0,
            8316.0,
            8316.0,
            8316.0,
            8316.0,
            8316.0,
            8320.0,
            8320.0,
            8320.0,
            8320.0,
            8320.0,
            8320.0,
            8318.0,
            8318.0,
            8318.0,
            8318.0,
            8318.0,
            8318.0,
            8318.0,
            8317.0,
            8317.0,
            8317.0,
            8309.0,
            8324.0,
            8277.0,
            8298.0,
            8281.0,
            8281.0,
            8281.0,
            8287.0,
            8288.0,
            8288.0,
            8288.0,
            8288.0,
            8288.0
        ],
        "freqv":[
            10914,
            10914,
            10914,
            10914,
            10914,
            10914,
            10914,
            10914,
            10914,
            10914,
            10914,
            10914,
            10914,
            10914,
            10914,
            10914,
            10914,
            10914,
            10914,
            10954,
            10954,
            10954,
            10954,
            10954,
            10954,
            10954,
            10954,
            10954,
            10954,
            10954,
            10954,
            10954,
            10954,
            10954,
            10954,
            10954,
            10954,
            10954,
            10954,
            10954,
            10954,
            10954,
            10954,
            10954,
            10954,
            10954,
            10954,
            10954,
            10954,
            10954,
            10954,
            10954,
            10954,
            10954,
            10954,
            10954,
            10954,
            10954,
            10954,
            10954,
            10954,
            10954,
            10954,
            10954,
            10954,
            10954,
            10954,
            10954,
            10954,
            10954,
            10954,
            10954
        ],
        "grupo":[
            3,
            3,
            3,
            3,
            3,
            3,
            3,
            3,
            3,
            3,
            3,
            3,
            3,
            3,
            3,
            3,
            3,
            3,
            3,
            3,
            3,
            3,
            3,
            3,
            3,
            3,
            3,
            3,
            3,
            3,
            3,
            3,
            3,
            3,
            3,
            3,
            3,
            3,
            3,
            3,
            3,
            3,
            3,
            3,
            3,
            3,
            3,
            3,
            3,
            3,
            3,
            3,
            3,
            3,
            3,
            3,
            3,
            3,
            3,
            3,
            3,
            3,
            3,
            3,
            3,
            3,
            3,
            3,
            3,
            3,
            3,
            3
        ],
        "key":"value",
        "nome":"MILHO ",
        "peso":[
            232.0,
            235.4,
            336.5,
            226.3,
            226.1,
            237.5,
            220.9,
            221.0,
            231.9,
            220.5,
            231.1,
            221.0,
            221.6,
            220.6,
            220.7,
            230.4,
            221.4,
            221.9,
            233.0,
            220.7,
            221.7,
            222.6,
            221.9,
            221.9,
            222.1,
            222.2,
            222.0,
            232.6,
            222.3,
            223.2,
            220.6,
            220.8,
            220.6,
            220.6,
            220.8,
            220.7,
            220.6,
            220.3,
            220.6,
            220.9,
            220.4,
            220.8,
            220.7,
            220.6,
            220.5,
            220.4,
            220.2,
            220.7,
            230.8,
            220.0,
            220.2,
            220.3,
            220.3,
            220.4,
            219.9,
            220.0,
            220.0,
            220.1,
            219.8,
            220.3,
            220.1,
            220.3,
            220.1,
            220.0,
            219.7,
            219.7,
            219.7,
            219.7,
            220.0,
            219.6,
            219.5,
            219.8
        ],
        "ph":[
            70.87,
            71.91,
            102.8,
            69.13,
            69.07,
            72.55,
            67.48,
            67.51,
            70.84,
            67.36,
            70.6,
            67.51,
            67.7,
            67.39,
            67.42,
            70.39,
            67.64,
            67.79,
            71.18,
            67.42,
            67.73,
            68.0,
            67.79,
            67.79,
            67.85,
            67.88,
            67.82,
            71.06,
            67.91,
            68.19,
            67.39,
            67.45,
            67.39,
            67.39,
            67.45,
            67.42,
            67.39,
            67.3,
            67.39,
            67.48,
            67.33,
            67.45,
            67.42,
            67.39,
            67.36,
            67.33,
            67.27,
            67.42,
            70.51,
            67.21,
            67.27,
            67.3,
            67.3,
            67.33,
            67.18,
            67.21,
            67.21,
            67.24,
            67.15,
            67.3,
            67.24,
            67.3,
            67.24,
            67.21,
            67.12,
            67.12,
            67.12,
            67.12,
            67.21,
            67.09,
            67.06,
            67.15
        ],
        "temperatura":[
            24.6,
            24.6,
            23.9,
            24.3,
            24.3,
            25.6,
            23.4,
            23.1,
            25.3,
            25.0,
            25.1,
            24.6,
            24.6,
            24.3,
            24.3,
            24.2,
            24.4,
            24.8,
            24.8,
            23.7,
            22.9,
            22.9,
            22.9,
            22.9,
            23.0,
            23.0,
            23.0,
            22.9,
            22.9,
            22.9,
            25.6,
            25.6,
            25.6,
            25.6,
            25.6,
            25.4,
            25.4,
            25.4,
            25.4,
            25.4,
            25.4,
            25.4,
            25.4,
            25.4,
            25.4,
            25.4,
            25.4,
            25.4,
            25.4,
            25.4,
            25.4,
            25.4,
            25.4,
            25.4,
            25.5,
            25.5,
            25.5,
            25.5,
            25.4,
            25.5,
            25.5,
            25.5,
            25.4,
            25.4,
            25.4,
            25.4,
            25.5,
            25.5,
            25.5,
            25.5,
            25.5,
            25.5
        ],
        "time":[
            "2017-02-01 12:58:57",
            "2017-01-31 13:18:29",
            "2017-01-26 12:14:43",
            "2017-01-23 12:19:37",
            "2017-01-23 12:17:12",
            "2017-01-20 12:32:58",
            "2017-01-17 16:42:57",
            "2017-01-17 15:58:57",
            "2017-01-16 17:33:04",
            "2017-01-16 17:11:28",
            "2017-01-16 17:11:16",
            "2017-01-16 15:31:03",
            "2017-01-16 13:19:28",
            "2017-01-13 16:23:04",
            "2017-01-13 16:21:01",
            "2017-01-13 16:19:43",
            "2017-01-13 13:17:54",
            "2017-01-13 13:04:24",
            "2017-01-13 13:00:37",
            "2017-01-12 17:38:24",
            "2017-01-12 11:44:35",
            "2017-01-12 11:43:49",
            "2017-01-12 11:42:58",
            "2017-01-12 11:42:19",
            "2017-01-12 11:41:25",
            "2017-01-12 11:37:12",
            "2017-01-12 11:35:37",
            "2017-01-12 11:26:51",
            "2017-01-12 11:24:16",
            "2017-01-12 11:22:43",
            "2017-01-11 17:58:43",
            "2017-01-11 17:56:09",
            "2017-01-11 17:55:27",
            "2017-01-11 17:55:08",
            "2017-01-11 17:54:07",
            "2017-01-11 17:25:51",
            "2017-01-11 17:23:49",
            "2017-01-11 17:21:17",
            "2017-01-11 17:20:11",
            "2017-01-11 17:19:23",
            "2017-01-11 17:16:47",
            "2017-01-11 17:15:50",
            "2017-01-11 17:13:47",
            "2017-01-11 17:12:20",
            "2017-01-11 17:10:57",
            "2017-01-11 17:09:12",
            "2017-01-11 17:07:50",
            "2017-01-11 17:06:57",
            "2017-01-11 17:06:47",
            "2017-01-11 17:04:49",
            "2017-01-11 17:03:42",
            "2017-01-11 16:55:03",
            "2017-01-11 16:54:07",
            "2017-01-11 16:53:09",
            "2017-01-11 16:49:02",
            "2017-01-11 16:47:16",
            "2017-01-11 16:36:49",
            "2017-01-11 16:35:57",
            "2017-01-11 16:34:14",
            "2017-01-11 16:15:15",
            "2017-01-11 16:14:10",
            "2017-01-11 16:12:10",
            "2017-01-11 16:10:55",
            "2017-01-11 16:09:52",
            "2017-01-11 16:09:26",
            "2017-01-11 16:08:50",
            "2017-01-11 16:03:31",
            "2017-01-11 16:01:13",
            "2017-01-11 16:00:30",
            "2017-01-11 15:59:37",
            "2017-01-11 15:58:27",
            "2017-01-11 15:57:34"
        ],
        "type":"",
        "umidade":[
            12.067298517151556,
            11.413024932640997,
            4.465294885768249,
            12.507700262228145,
            12.52913644547372,
            11.211414623232972,
            12.94479219692994,
            12.829167713942478,
            11.794405345633123,
            8.465805415201045,
            11.925410013989627,
            12.882337170161371,
            13.079016522620318,
            13.151484526580445,
            13.129217348201045,
            12.374233289364948,
            13.26239828193193,
            13.3148155504222,
            11.916230311938408,
            13.70672462874325,
            13.509442434543892,
            20.507019914522555,
            13.487129380462434,
            13.487129380462434,
            13.45597156519473,
            13.444818738702978,
            13.467125454109334,
            12.318937731484068,
            13.38746990881565,
            13.287897508911252,
            13.649756901359407,
            13.615489387446885,
            13.638566563976015,
            13.638566563976015,
            13.626677833200919,
            13.611512362697333,
            13.701031321769506,
            13.556990834034043,
            13.52275165311993,
            13.489219984784274,
            13.545809707577988,
            13.500396238210381,
            13.511573462319637,
            13.478743132324702,
            13.489918472109888,
            13.50109478632065,
            13.524148994741587,
            13.467568770956833,
            12.368886623591328,
            13.568871822236924,
            13.5465085000601,
            13.534629535586113,
            13.534629535586113,
            13.523450322050968,
            13.571904899643632,
            13.560022843236924,
            13.571205925665256,
            13.560022843236924,
            13.603122983480091,
            13.625736871756775,
            13.4824664791792,
            13.98350575630892,
            13.780107664669902,
            13.981840521314027,
            14.016890613913784,
            14.016890613913784,
            13.940752345918147,
            13.92954027790222,
            13.89450783319128,
            13.940752345918147,
            13.952666056160135,
            13.917628348162852
        ],
        "user":[
            "luiz",
            "luiz",
            "luiz",
            "luiz",
            "luiz",
            "luiz",
            "luiz",
            "luiz",
            "luiz",
            "luiz",
            "luiz",
            "luiz",
            "luiz",
            "luiz",
            "luiz",
            "luiz",
            "luiz",
            "luiz",
            "luiz",
            "luiz",
            "luiz",
            "luiz",
            "luiz",
            "luiz",
            "luiz",
            "luiz",
            "luiz",
            "luiz",
            "luiz",
            "luiz",
            "luiz",
            "luiz",
            "luiz",
            "luiz",
            "luiz",
            "luiz",
            "luiz",
            "luiz",
            "luiz",
            "luiz",
            "luiz",
            "luiz",
            "luiz",
            "luiz",
            "luiz",
            "luiz",
            "luiz",
            "luiz",
            "luiz",
            "luiz",
            "luiz",
            "luiz",
            "luiz",
            "luiz",
            "luiz",
            "luiz",
            "luiz",
            "luiz",
            "luiz",
            "luiz",
            "luiz",
            "luiz",
            "luiz",
            "luiz",
            "luiz",
            "luiz",
            "luiz",
            "luiz",
            "luiz",
            "luiz",
            "luiz",
            "luiz"
        ]
    },
    {
        "contador":[
            181,
            180,
            175
        ],
        "dial":[
            38.79158070742713,
            38.79158070742713,
            38.79158070742713
        ],
        "dialc":[
            28.196119758563366,
            28.32404738024581,
            28.36808076476819
        ],
        "freqc":[
            8313.0,
            8313.0,
            8313.0
        ],
        "freqv":[
            10914,
            10914,
            10914
        ],
        "grupo":[
            4,
            4,
            4
        ],
        "key":"value",
        "nome":"AVEIA COM CASCA ",
        "peso":[
            221.9,
            221.6,
            221.5
        ],
        "ph":[
            67.79,
            67.7,
            67.67
        ],
        "temperatura":[
            24.8,
            24.8,
            24.8
        ],
        "time":[
            "2017-01-16 15:56:19",
            "2017-01-16 15:56:08",
            "2017-01-16 15:41:24"
        ],
        "type":"",
        "umidade":[
            13.671882481657573,
            13.703184617778058,
            13.713981596451347
        ],
        "user":[
            "luiz",
            "luiz",
            "luiz"
        ]
    },
    {
        "contador":[
            76
        ],
        "dial":[
            39.9972956439627
        ],
        "dialc":[
            39.322577802778866
        ],
        "freqc":[
            8119.0
        ],
        "freqv":[
            10954
        ],
        "grupo":[
            1
        ],
        "key":"value",
        "nome":"FEIJ\u00c3O PRETO > 24% ",
        "peso":[
            251.2
        ],
        "ph":[
            "76.74 kg/hl"
        ],
        "temperatura":[
            24.6
        ],
        "time":[
            "2017-01-09 13:52:46"
        ],
        "type":"",
        "umidade":[
            13.65038628260286
        ]
    }
]